Division,WeightClassKg,Place,Name,Team,BodyweightKg,Best3SquatKg,Best3BenchKg,Best3DeadliftKg,TotalKg,Equipment,Event,Sex,BirthDate
Boys,51.71,1,Andrik Ramirez,Fort Stockton,49.9,136.08,88.45,142.88,367.41,Single-ply,SBD,M,
Boys,51.71,2,Jorge De Santiago,Andrews,51.07,111.13,61.23,124.74,297.1,Single-ply,SBD,M,
Boys,51.71,3,Caleb Lee,Monahans,48.35,108.86,54.43,108.86,272.16,Single-ply,SBD,M,
Boys,51.71,4,Daniel Renteria,Fort Stockton,51.53,74.84,56.7,102.06,233.6,Single-ply,SBD,M,
Boys,51.71,5,Adrian Valdez,Fort Stockton,48.63,86.18,31.75,104.33,222.26,Single-ply,SBD,M,
Boys,55.79,1,Zaniel Florez,Kermit,55.79,170.1,90.72,170.1,430.91,Single-ply,SBD,M,
Boys,55.79,2,Kendrick Porras,Fort Stockton,55.57,145.15,83.91,181.44,410.5,Single-ply,SBD,M,
Boys,55.79,3,Ivan Zamora,Andrews,55.16,145.15,77.11,172.37,394.63,Single-ply,SBD,M,
Boys,55.79,4,Caison Burrus,Fort Stockton,54.88,147.42,70.31,142.88,360.61,Single-ply,SBD,M,
Boys,55.79,5,Oliver Cervantes,Crane,53.89,133.81,77.11,142.88,353.8,Single-ply,SBD,M,
Boys,55.79,6,Luis Chavez,Andrews,54.7,99.79,56.7,122.47,278.96,Single-ply,SBD,M,
Boys,59.87,1,Junie Gonzales,Midland Greenwood,59.87,172.37,97.52,176.9,446.79,Single-ply,SBD,M,
Boys,59.87,2,Bryan Lee Rivera,Fort Stockton,59.87,149.69,95.25,156.49,401.43,Single-ply,SBD,M,
Boys,59.87,3,Andres Pando,Pecos,59.87,113.4,97.52,122.47,333.39,Single-ply,SBD,M,
Boys,59.87,4,Daren Ureste,Fort Stockton,58.69,120.2,70.31,122.47,312.98,Single-ply,SBD,M,
Boys,67.13,1,Juan Salgado,Fort Stockton,66.45,195.04,147.42,201.85,544.31,Single-ply,SBD,M,
Boys,67.13,2,Lucas Esparza,Andrews,67.13,210.92,120.2,208.65,539.77,Single-ply,SBD,M,
Boys,67.13,3,Ronnie Romero,Fort Stockton,67.13,181.44,102.06,185.97,469.47,Single-ply,SBD,M,
Boys,67.13,4,Josiah Valdez,Crane,67.13,165.56,90.72,192.78,449.06,Single-ply,SBD,M,
Boys,67.13,5,Matt Rosas,Wink,63.14,142.88,88.45,170.1,401.43,Single-ply,SBD,M,
Boys,67.13,6,Adan Dominguez,McCamey,64.14,142.88,90.72,154.22,387.82,Single-ply,SBD,M,
Boys,67.13,7,Travis Handley,Andrews,63.14,138.35,92.99,154.22,385.55,Single-ply,SBD,M,
Boys,67.13,8,George Wagner,Andrews,65.05,140.61,77.11,156.49,374.21,Single-ply,SBD,M,
Boys,67.13,9,Xavier Urais,McCamey,65.68,136.08,95.25,136.08,367.41,Single-ply,SBD,M,
Boys,67.13,10,Aragorn Guerrero,Andrews,64.68,133.81,61.23,147.42,342.46,Single-ply,SBD,M,
Boys,67.13,11,John Breeden,Midland Greenwood,64.86,131.54,65.77,140.61,337.93,Single-ply,SBD,M,
Boys,67.13,12,Ángel Sánchez #3,Pecos,65.14,120.2,83.91,129.27,333.39,Single-ply,SBD,M,
Boys,67.13,13,Rene Orona,Monahans,66.59,106.59,72.57,138.35,317.51,Single-ply,SBD,M,
Boys,67.13,14,Jayden Wilhelm,Midland Greenwood,64.5,106.59,56.7,115.67,278.96,Single-ply,SBD,M,
Boys,67.13,DQ,Chris Rey,Andrews,64.68,111.13,70.31,,,Single-ply,SBD,M,
Boys,67.13,DQ,Daniel Montano,Andrews,66.77,136.08,,,,Single-ply,SBD,M,
Boys,67.13,DQ,Styer Bradley,McCamey,66.95,,,,,Single-ply,SBD,M,
Boys,67.13,DQ,Jesus Villegas,Kermit,67.13,,,,,Single-ply,SBD,M,
Boys,67.13,DQ,Jaylee Ibarra,Fort Stockton,64.41,188.24,,,,Single-ply,SBD,M,
Boys,74.84,1,Christian Valles,Andrews,69.22,210.92,127.01,231.33,569.26,Single-ply,SBD,M,
Boys,74.84,2,Raymond Flores,Andrews,72.3,206.38,127.01,213.19,546.58,Single-ply,SBD,M,
Boys,74.84,3,Eric Cuellar,Andrews,74.57,199.58,99.79,217.72,517.1,Single-ply,SBD,M,
Boys,74.84,4,Gabriel Calzada,Fort Stockton,72.57,195.04,115.67,201.85,512.56,Single-ply,SBD,M,
Boys,74.84,5,Jaydrien Ramirez,Fort Stockton,71.67,195.04,120.2,176.9,492.15,Single-ply,SBD,M,
Boys,74.84,6,Aaron Salazar,Seminole,73.94,181.44,120.2,176.9,478.54,Single-ply,SBD,M,
Boys,74.84,7,Arnold Vallez,Crane,71.12,179.17,102.06,195.04,476.27,Single-ply,SBD,M,
Boys,74.84,8,Uber Granado,Fort Stockton,72.67,181.44,97.52,188.24,467.2,Single-ply,SBD,M,
Boys,74.84,9,Gabriel Zubiate,Seminole,72.85,195.04,95.25,176.9,467.2,Single-ply,SBD,M,
Boys,74.84,10,Alejandro Diaz,Odessa,73.66,167.83,99.79,183.7,451.32,Single-ply,SBD,M,
Boys,74.84,11,Jerem McDonald,Crane,70.94,174.63,97.52,172.37,444.52,Single-ply,SBD,M,
Boys,74.84,12,Matthew Valenzuela,Andrews,72.76,120.2,77.11,140.61,337.93,Single-ply,SBD,M,
Boys,74.84,13,Cole Purcell,Wink,70.22,115.67,74.84,127.01,317.51,Single-ply,SBD,M,
Boys,74.84,14,Giovanni Tarango,Midland Greenwood,69.4,122.47,70.31,115.67,308.44,Single-ply,SBD,M,
Boys,74.84,15,Christian Maledon,Pecos,72.03,111.13,72.57,120.2,303.91,Single-ply,SBD,M,
Boys,74.84,16,Noah Powell,Monahans,69.22,113.4,65.77,115.67,294.84,Single-ply,SBD,M,
Boys,74.84,17,Marco Martínez,Alpine,72.48,90.72,56.7,106.59,254.01,Single-ply,SBD,M,
Boys,74.84,18,Alexavier Santibanez,Andrews,73.48,77.11,52.16,115.67,244.94,Single-ply,SBD,M,
Boys,74.84,DQ,Joel Garcia,Kermit,73.75,,,,,Single-ply,SBD,M,
Boys,74.84,DQ,Bradley Peralta,Kermit,71.58,172.37,99.79,,,Single-ply,SBD,M,
Boys,82.1,1,Alex Natera,Alpine,78.02,195.04,124.74,204.12,523.9,Single-ply,SBD,M,
Boys,82.1,2,Clayton Foster,Fort Stockton,77.56,195.04,122.47,197.31,514.83,Single-ply,SBD,M,
Boys,82.1,3,Hunter Manning,Andrews,81.74,192.78,106.59,188.24,487.61,Single-ply,SBD,M,
Boys,82.1,4,Dominic Aguilar,Fort Stockton,78.93,165.56,136.08,183.7,485.34,Single-ply,SBD,M,
Boys,82.1,5,Laramie Vires,Odessa,76.66,170.1,117.93,181.44,469.47,Single-ply,SBD,M,
Boys,82.1,6,Michael Ortega,Fort Stockton,78.93,172.37,113.4,170.1,455.86,Single-ply,SBD,M,
Boys,82.1,7,Izaiah Lujan,Fort Stockton,81.19,156.49,102.06,176.9,435.45,Single-ply,SBD,M,
Boys,82.1,8,Jovany Hernandez,Fort Stockton,78.02,158.76,90.72,170.1,419.57,Single-ply,SBD,M,
Boys,82.1,9,David Madrid,Pecos,76.02,140.61,99.79,172.37,412.77,Single-ply,SBD,M,
Boys,82.1,10,Jose Hernandez #22,Fort Stockton,79.38,142.88,74.84,151.95,369.68,Single-ply,SBD,M,
Boys,82.1,11,Rito Gomez,Fort Stockton,79.15,131.54,90.72,113.4,335.66,Single-ply,SBD,M,
Boys,82.1,12,Ryan Villanueva,Pecos,78.65,102.06,70.31,142.88,315.25,Single-ply,SBD,M,
Boys,82.1,DQ,Jaden Gonzales,Fort Stockton,82.05,201.85,117.93,,,Single-ply,SBD,M,
Boys,89.81,1,Esau Flores,Andrews,88.72,260.82,158.76,260.82,680.39,Single-ply,SBD,M,
Boys,89.81,2,Jezreel Snachez-Juarez,Odessa,83.55,222.26,129.27,235.87,587.4,Single-ply,SBD,M,
Boys,89.81,3,Kevin Zepeda-Giron,Odessa,85.09,233.6,156.49,195.04,585.13,Single-ply,SBD,M,
Boys,89.81,4,Damon Casarez,Seminole,85.64,226.8,122.47,199.58,548.85,Single-ply,SBD,M,
Boys,89.81,5,Caden Johnson,McCamey,84.91,208.65,117.93,192.78,519.36,Single-ply,SBD,M,
Boys,89.81,6,Tristan Pineda,McCamey,89.81,215.46,104.33,197.31,517.1,Single-ply,SBD,M,
Boys,89.81,7,Angelo Lopez,Kermit,85.55,183.7,124.74,183.7,492.15,Single-ply,SBD,M,
Boys,89.81,8,Juan Carreon,Odessa,88.81,167.83,127.01,195.04,489.88,Single-ply,SBD,M,
Boys,89.81,9,Alex Wooten,Seminole,87,181.44,106.59,181.44,469.47,Single-ply,SBD,M,
Boys,89.81,10,Roy Bislar,Fort Stockton,86.64,174.63,111.13,167.83,453.59,Single-ply,SBD,M,
Boys,89.81,11,Justin Sanchez,Fort Stockton,87.54,147.42,120.2,174.63,442.25,Single-ply,SBD,M,
Boys,89.81,12,Brandon Castillo,Andrews,86.91,181.44,88.45,167.83,437.72,Single-ply,SBD,M,
Boys,89.81,13,Danny Valenzula,Fort Stockton,89.72,165.56,99.79,167.83,433.18,Single-ply,SBD,M,
Boys,89.81,14,Elijah Escajeda,Fort Stockton,87.54,163.29,111.13,149.69,424.11,Single-ply,SBD,M,
Boys,89.81,15,Joseph Vowels,Monahans,89.81,138.35,74.84,149.69,362.87,Single-ply,SBD,M,
Boys,89.81,16,Miguel Sanchez,McCamey,85.73,136.08,61.23,145.15,342.46,Single-ply,SBD,M,
Boys,89.81,17,Jc Nople,Fort Stockton,87.32,111.13,81.65,136.08,328.85,Single-ply,SBD,M,
Boys,89.81,18,Dylan Boone,Midland Greenwood,85.18,111.13,83.91,120.2,315.25,Single-ply,SBD,M,
Boys,89.81,19,Ray Dulaney,Fort Stockton,83.46,97.52,70.31,113.4,281.23,Single-ply,SBD,M,
Boys,89.81,DQ,Grabe Muniz,Wink,84.1,174.63,,,,Single-ply,SBD,M,
Boys,99.79,1,Aaron Olivas,Andrews,94.8,254.01,142.88,204.12,601.01,Single-ply,SBD,M,
Boys,99.79,2,Edgar Flores,Fort Stockton,98.43,213.19,147.42,215.46,576.06,Single-ply,SBD,M,
Boys,99.79,3,Mikial Burrola,Kermit,93.17,217.72,140.61,210.92,569.26,Single-ply,SBD,M,
Boys,99.79,4,Donnie De La Cruz,Fort Stockton,99.43,215.46,138.35,195.04,548.85,Single-ply,SBD,M,
Boys,99.79,5,Irvin Delgado,Seminole,97.89,217.72,120.2,208.65,546.58,Single-ply,SBD,M,
Boys,99.79,6,Ryan Gooch,Alpine,93.26,204.12,120.2,174.63,498.95,Single-ply,SBD,M,
Boys,99.79,7,Abraham Garcia,Wink,90.9,185.97,102.06,181.44,469.47,Single-ply,SBD,M,
Boys,99.79,8,Christian Aguirre,Odessa,94.35,181.44,102.06,181.44,464.93,Single-ply,SBD,M,
Boys,99.79,9,Jeremiah Talamantes,Seminole,98.16,192.78,88.45,170.1,451.32,Single-ply,SBD,M,
Boys,99.79,10,Mack Payne,Wink,93.62,158.76,104.33,170.1,433.18,Single-ply,SBD,M,
Boys,99.79,11,Lucas Ordonez,Monahans,90.31,165.56,86.18,163.29,415.04,Single-ply,SBD,M,
Boys,99.79,12,Kenneth Ramsey,Monahans,99.79,136.08,95.25,176.9,408.23,Single-ply,SBD,M,
Boys,99.79,13,Jose Guerrero,Odessa,90.26,136.08,92.99,151.95,381.02,Single-ply,SBD,M,
Boys,99.79,14,Tucker Tippin,Andrews,93.26,149.69,88.45,136.08,374.21,Single-ply,SBD,M,
Boys,99.79,15,Alex Estrada #1,Midland Greenwood,96.07,154.22,79.38,140.61,374.21,Single-ply,SBD,M,
Boys,99.79,16,Xavier Carrillo,Odessa,94.8,142.88,90.72,138.35,371.95,Single-ply,SBD,M,
Boys,99.79,17,Robert Burrow,Monahans,91.81,136.08,72.57,147.42,356.07,Single-ply,SBD,M,
Boys,99.79,DQ,Gage Strain,Pecos,95.89,158.76,90.72,,,Single-ply,SBD,M,
Boys,99.79,DQ,Jonathan Dozal,Odessa,97.61,156.49,,,,Single-ply,SBD,M,
Boys,109.77,1,Jadyn Lehde,Crane,107.77,274.42,147.42,226.8,648.64,Single-ply,SBD,M,
Boys,109.77,2,Joel Estrella,Andrews,107.14,240.4,140.61,249.48,630.49,Single-ply,SBD,M,
Boys,109.77,3,Devon Butler,Crane,108.77,251.74,156.49,192.78,601.01,Single-ply,SBD,M,
Boys,109.77,4,Kyle Coffey #1,Monahans,106.23,226.8,147.42,219.99,594.21,Single-ply,SBD,M,
Boys,109.77,5,Everett McGhee,Pecos,107.77,226.8,154.22,195.04,576.06,Single-ply,SBD,M,
Boys,109.77,6,Cade Bayer,Fort Stockton,106.59,183.7,117.93,165.56,467.2,Single-ply,SBD,M,
Boys,109.77,7,Eliseo Bonilla,Kermit,105.37,165.56,95.25,165.56,426.38,Single-ply,SBD,M,
Boys,109.77,8,Drew Coker,Monahans,101.42,170.1,86.18,154.22,410.5,Single-ply,SBD,M,
Boys,109.77,9,Jose Ramirez #15,Fort Stockton,109.68,170.1,108.86,127.01,405.97,Single-ply,SBD,M,
Boys,109.77,10,Cash Caswell,Andrews,107.14,140.61,70.31,131.54,342.46,Single-ply,SBD,M,
Boys,109.77,DQ,Jonathan Salinas,Fort Stockton,105.69,183.7,111.13,,,Single-ply,SBD,M,
Boys,124.74,1,Darius Pando,Kermit,115.76,260.82,149.69,233.6,644.1,Single-ply,SBD,M,
Boys,124.74,2,Gerry Salazar,McCamey,114.4,238.14,138.35,219.99,596.47,Single-ply,SBD,M,
Boys,124.74,3,Jayson Pagan,McCamey,110.13,247.21,133.81,213.19,594.21,Single-ply,SBD,M,
Boys,124.74,4,Memphis Alvarado,Fort Stockton,117.93,183.7,151.95,179.17,514.83,Single-ply,SBD,M,
Boys,124.74,5,Roberto Ramirez,Fort Stockton,123.83,188.24,117.93,167.83,474,Single-ply,SBD,M,
Boys,124.74,6,Andrew Gonzales,Fort Stockton,118.39,172.37,102.06,170.1,444.52,Single-ply,SBD,M,
Boys,124.74,7,Moises Rodriguez,Monahans,113.85,147.42,88.45,167.83,403.7,Single-ply,SBD,M,
Boys,124.74,DQ,Isaiah Garcia,McCamey,115.76,219.99,106.59,,,Single-ply,SBD,M,
Boys,124.74+,1,Albert Aguilar,Pecos,153.59,281.23,204.12,226.8,712.14,Single-ply,SBD,M,
Boys,124.74+,2,Jt Gomez,Fort Stockton,144.7,258.55,138.35,201.85,598.74,Single-ply,SBD,M,
Boys,124.74+,3,Jalen Ramirez,Wink,147.6,185.97,90.72,188.24,464.93,Single-ply,SBD,M,
Boys,124.74+,4,Luis Mendoza,Fort Stockton,126.55,190.51,124.74,147.42,462.66,Single-ply,SBD,M,
Boys,124.74+,5,Jacob Payne,Monahans,130.18,154.22,83.91,158.76,396.89,Single-ply,SBD,M,
