Division,WeightClassKg,Place,Name,Team,BodyweightKg,Best3SquatKg,Best3BenchKg,Best3DeadliftKg,TotalKg,Equipment,Event,Sex
Boys,51.71,1,Jaylynn Mitchell,Crosby,51.71,102.06,68.04,113.4,283.5,Single-ply,SBD,M
Boys,55.79,1,Timothy Wilson,Conroe Caney Creek,54.43,106.59,63.5,145.15,315.25,Single-ply,SBD,M
Boys,59.87,1,Ryan Collette,Huffman Hargrave,59.42,158.76,106.59,176.9,442.25,Single-ply,SBD,M
Boys,59.87,2,Brandon Coon,Conroe Caney Creek,59.87,158.76,83.91,158.76,401.43,Single-ply,SBD,M
Boys,59.87,DQ,Brandon Parker #2,Livingston,59.42,,,,,Single-ply,SBD,M
Boys,59.87,DQ,Hugo DeLeon,Livingston,57.61,,,,,Single-ply,SBD,M
Boys,59.87,DQ,Corry Scott,Livingston,58.06,,,,,Single-ply,SBD,M
Boys,67.13,1,Garet Stuckey,Conroe Caney Creek,67.13,192.78,113.4,195.04,501.22,Single-ply,SBD,M
Boys,67.13,2,Ismael Orduna,Livingston,66.22,181.44,92.99,183.7,458.13,Single-ply,SBD,M
Boys,67.13,3,Caleb Jackson,Huffman Hargrave,65.32,158.76,97.52,183.7,439.98,Single-ply,SBD,M
Boys,67.13,4,Nathan Gruber,Huffman Hargrave,63.96,108.86,68.04,113.4,290.3,Single-ply,SBD,M
Boys,67.13,DQ,John Eccles,Huffman Hargrave,67.13,,,,,Single-ply,SBD,M
Boys,67.13,DQ,Malik Griffin,Crosby,67.13,,,,,Single-ply,SBD,M
Boys,67.13,DQ,Triton Manous,Hemphill,67.13,,,,,Single-ply,SBD,M
Boys,67.13,DQ,Zander Hollingsworth,Grapeland,67.13,,,,,Single-ply,SBD,M
Boys,74.84,1,Randy Cornejo,Conroe Caney Creek,70.76,179.17,106.59,217.72,503.49,Single-ply,SBD,M
Boys,74.84,2,BJ Mottu,Livingston,70.31,161.03,115.67,213.19,489.88,Single-ply,SBD,M
Boys,74.84,3,Jared Hope,Livingston,71.67,163.29,92.99,215.46,471.74,Single-ply,SBD,M
Boys,74.84,4,Will Broussard,Livingston,73.48,170.1,90.72,192.78,453.59,Single-ply,SBD,M
Boys,74.84,5,Devin Kelly,Huffman Hargrave,71.67,158.76,88.45,161.03,408.23,Single-ply,SBD,M
Boys,74.84,6,Savian Hancock,Huffman Hargrave,70.31,127.01,81.65,158.76,367.41,Single-ply,SBD,M
Boys,74.84,7,Cory Griffin,Crosby,69.85,115.67,79.38,147.42,342.46,Single-ply,SBD,M
Boys,74.84,8,Micah Legg,Livingston,74.39,133.81,74.84,124.74,333.39,Single-ply,SBD,M
Boys,74.84,DQ,Caden Whigham,Huffman Hargrave,73.03,140.61,88.45,163.29,,Single-ply,SBD,M
Boys,74.84,DQ,Kaylen Manzi,Huffman Hargrave,74.84,,,,,Single-ply,SBD,M
Boys,82.1,1,Cameron Riess,Grapeland,80.29,238.14,136.08,210.92,585.13,Single-ply,SBD,M
Boys,82.1,2,Gary Carter,Crosby,79.38,181.44,111.13,206.38,498.95,Single-ply,SBD,M
Boys,82.1,3,Brett Patton,Conroe Caney Creek,82.1,199.58,117.93,174.63,492.15,Single-ply,SBD,M
Boys,82.1,4,Cameron Kittman,Hemphill,81.19,156.49,111.13,185.97,453.59,Single-ply,SBD,M
Boys,82.1,5,Dylan Gilpin,Grapeland,80.29,136.08,79.38,154.22,369.68,Single-ply,SBD,M
Boys,82.1,DQ,Carter James,Grapeland,82.1,,,,,Single-ply,SBD,M
Boys,82.1,DQ,Lance Cole,Crosby,82.1,,,,,Single-ply,SBD,M
Boys,82.1,DQ,Ben Arnold,Huffman Hargrave,82.1,,,,,Single-ply,SBD,M
Boys,89.81,1,Kyle Haynes,Livingston,88.9,226.8,149.69,215.46,591.94,Single-ply,SBD,M
Boys,89.81,2,Brandon Diaz,Crosby,88.9,181.44,113.4,204.12,498.95,Single-ply,SBD,M
Boys,89.81,3,Colton Maxey,Crosby,86.64,181.44,111.13,192.78,485.34,Single-ply,SBD,M
Boys,89.81,4,Dakota Piper,Livingston,82.19,170.1,124.74,165.56,460.4,Single-ply,SBD,M
Boys,89.81,5,Travis Hyman,Crosby,87.54,158.76,115.67,183.7,458.13,Single-ply,SBD,M
Boys,89.81,6,Chris Clausen,Livingston,87.09,183.7,111.13,158.76,453.59,Single-ply,SBD,M
Boys,89.81,7,Noah Young #2,Huffman Hargrave,85.73,163.29,99.79,183.7,446.79,Single-ply,SBD,M
Boys,89.81,8,Jonathan Rodgers #2,Grapeland,86.18,163.29,97.52,149.69,410.5,Single-ply,SBD,M
Boys,89.81,9,Jason Navarro,Huffman Hargrave,85.28,147.42,83.91,161.03,392.36,Single-ply,SBD,M
Boys,89.81,DQ,Brent Patton,Conroe Caney Creek,85.28,,,,,Single-ply,SBD,M
Boys,89.81,DQ,Dustin Ackley,Grapeland,89.81,,,,,Single-ply,SBD,M
Boys,89.81,DQ,Ashton Henry,Grapeland,89.81,,,,,Single-ply,SBD,M
Boys,99.79,1,Travis Anderson,Crosby,90.26,272.16,192.78,272.16,737.09,Single-ply,SBD,M
Boys,99.79,2,David Caddie,Livingston,92.53,260.82,161.03,272.16,694,Single-ply,SBD,M
Boys,99.79,3,Jace Lowe,Hemphill,99.34,176.9,115.67,172.37,464.93,Single-ply,SBD,M
Boys,99.79,DQ,Kolin Seward,Livingston,94.8,247.21,,,,Single-ply,SBD,M
Boys,99.79,DQ,Jacob Blanton,Livingston,99.79,,,,,Single-ply,SBD,M
Boys,99.79,DQ,Caleb Chute,Conroe Caney Creek,99.79,,,,,Single-ply,SBD,M
Boys,109.77,1,Marcus Garza,Conroe Caney Creek,107.05,256.28,145.15,233.6,635.03,Single-ply,SBD,M
Boys,109.77,2,Barcenas Cruz,Huffman Hargrave,109.32,154.22,99.79,174.63,428.64,Single-ply,SBD,M
Boys,109.77,DQ,Foster Foresman,Livingston,100.7,,,,,Single-ply,SBD,M
Boys,109.77,DQ,Trac DeLeon,Hemphill,109.77,,,,,Single-ply,SBD,M
Boys,109.77,DQ,Daren Lowe,Hemphill,109.77,,,,,Single-ply,SBD,M
Boys,124.74,1,John Legg,Conroe Caney Creek,112.94,226.8,106.59,208.65,542.04,Single-ply,SBD,M
Boys,124.74,2,Kedar Gordon,Livingston,116.12,226.8,106.59,206.38,539.77,Single-ply,SBD,M
Boys,124.74,3,Cameron Balinski,Crosby,117.93,154.22,92.99,151.95,399.16,Single-ply,SBD,M
Boys,124.74,4,Reese McGraw,Hemphill,110.22,149.69,88.45,147.42,385.55,Single-ply,SBD,M
Boys,124.74+,1,Terry Carter,Livingston,146.96,283.5,156.49,292.57,732.55,Single-ply,SBD,M
Boys,124.74+,2,Keenan Murphy,Crosby,136.53,260.82,167.83,249.48,678.12,Single-ply,SBD,M
Boys,124.74+,3,Richard Bennett,Hemphill,132,226.8,142.88,219.99,589.67,Single-ply,SBD,M
Boys,124.74+,4,Colton Lowe,Conroe Caney Creek,156.04,244.94,147.42,188.24,580.6,Single-ply,SBD,M
Boys,124.74+,5,Brent Holmes,Conroe Caney Creek,125.19,231.33,136.08,195.04,562.45,Single-ply,SBD,M
Boys,124.74+,6,Joel Barbosa,Grapeland,125.19,226.8,124.74,208.65,560.19,Single-ply,SBD,M
Boys,124.74+,DQ,Billy Dobbins,Livingston,127.46,210.92,,,,Single-ply,SBD,M
