Sex,WeightClassKg,EntryDate,Name,Country,BirthDate,BodyweightKg,Bench1Kg,Bench2Kg,Bench3Kg,Best3BenchKg,Bench4Kg,TotalKg,Event,Equipment,Division,Place
M,52,2011-12-17,Choochat Sukjarern,Thailand,1975-12-01,51.2,155,-157,157,157,,157,B,Raw,Open,1
M,52,2011-12-17,Binh An Nguyen,Vietnam,1985-01-28,51,150,-155,155,155,,155,B,Raw,Open,2
M,52,2011-12-17,Van Phuc Nguyen,Vietnam,1981-06-14,50.65,140,-145,150,150,,150,B,Raw,Open,3
M,52,2011-12-17,Vison Jasnie,Malaysia,1983-07-28,50.95,125,-130,-132,125,,125,B,Raw,Open,4
M,52,2011-12-17,Carlito Pereira,East Timor,1983-11-10,48.85,-80,80,-85,80,,80,B,Raw,Open,5
M,52,2011-12-17,Martin Soares,East Timor,1980-01-05,48.65,-75,-80,-80,,,,B,Raw,Open,DQ
M,52,2011-12-17,Jacinto Herianto de Jesus Pereira,East Timor,1980-01-01,51.55,-120,-120,-120,,,,B,Raw,Open,DQ
M,52,2011-12-17,Ahmad Hidayat,India,1979-08-08,50.55,-140,-140,-143,,,,B,Raw,Open,DQ
M,56,2011-12-17,Narong Kasanun,Thailand,1977-07-04,54.85,172,177,-182,177,,177,B,Raw,Open,1
M,56,2011-12-17,Agustin Kitan,Philippines,1976-08-06,55.6,140,145,-152,145,,145,B,Raw,Open,2
M,56,2011-12-17,Asep Darmawan,India,1970-04-17,53.4,-120,-130,-130,,,,B,Raw,Open,DQ
M,67.5,2011-12-18,Tong Trong Pham,Vietnam,1979-12-26,63.25,150,155,160,160,,160,B,Raw,Open,1
M,67.5,2011-12-18,Phongsakon Chumchai,Thailand,1975-07-14,60.1,145,150,-156,150,,150,B,Raw,Open,2
M,67.5,2011-12-18,Phouthavong Sisavengsouk,Laos,1980-01-01,66.5,-147,-147,-147,,,,B,Raw,Open,DQ
M,75,2011-12-18,Anto Boy,India,1974-07-03,75,172,177,-179,177,,177,B,Raw,Open,1
M,75,2011-12-18,Kampa Pongtao,Thailand,1977-01-02,67.85,-173,173,-177,173,,173,B,Raw,Open,3
M,75,2011-12-18,Mariappan Perumal,Malaysia,1958-02-25,74.05,-172,172,174,174,,174,B,Raw,Open,2
M,82.5,2011-12-18,Prasit Thongdee,Thailand,1981-11-19,79.7,170,181,-185,181,,181,B,Raw,Open,1
M,82.5,2011-12-18,Angriwan,India,1983-08-20,76.1,-145,-145,-150,,,,B,Raw,Open,DQ
M,90,2011-12-19,Somsak Kakaen,Thailand,1980-11-24,88,-180,180,183,183,,183,B,Raw,Open,1
M,90,2011-12-19,Hero Pariyono,India,1978-07-23,87.55,177,182,-183,182,,182,B,Raw,Open,2
M,90,2011-12-19,Yee Khie Jong,Malaysia,1988-11-19,83.95,155,160,165,165,,165,B,Raw,Open,3
M,100,2011-12-19,Mohd Shahmil Md Saad,Malaysia,1986-05-14,94.35,180,185,187,187,,187,B,Raw,Open,1
M,100,2011-12-19,Prakit Tongsang,Thailand,1984-07-21,93.9,172,-175,175,175,,175,B,Raw,Open,2
M,100,2011-12-19,Juwito Kasun,India,1971-02-05,96.4,145,-152,-152,145,,145,B,Raw,Open,3
M,100+,2011-12-19,Opas Jaithon,Thailand,1976-06-05,104.2,172,-175,-175,172,,172,B,Raw,Open,1
M,100+,2011-12-19,Atmaj Priambodo,India,1980-04-29,,,,,,,,B,Raw,Open,DQ
M,60,2011-12-17,Thongsa Marasi,Thailand,1975-01-30,59.8,165,170,180,180,,180,B,Raw,Open,1
M,60,2011-12-17,Van Hung Nguyen,Vietnam,1980-01-12,58.52,150,155,164,164,,164,B,Raw,Open,2
M,60,2011-12-17,Billy Zeth Makal,India,1972-09-26,57.6,145,-150,-163,145,,145,B,Raw,Open,3
M,48,2011-12-17,Thanh Xuan Nguyen,Vietnam,1981-02-15,46.75,140,-145,-145,140,,140,B,Raw,Open,1
M,48,2011-12-17,Eay Simay,Laos,1981-03-05,45.9,120,-140,-140,120,,120,B,Raw,Open,2
M,48,2011-12-17,Wan Kamarulzaman Wan Mohd Mor,Malaysia,1971-05-26,47.45,105,110,-115,110,,110,B,Raw,Open,3
M,48,2011-12-17,Tamin Prasetyo,India,1983-08-25,47.3,-140,-142,-147,,,,B,Raw,Open,DQ
M,48,2011-12-17,Pia,Laos,1989-12-12,45.9,-130,-130,-130,,,,B,Raw,Open,DQ
F,40,2011-12-17,Ni Nengah Widiasih I Gede Gamba,India,1987-12-12,38.85,-80,87,,87,,87,B,Raw,Open,1
F,40,2011-12-17,Thi Hong Nguyen,Vietnam,1979-03-17,38.2,83,-88,-88,83,,83,B,Raw,Open,2
F,44,2011-12-17,Achelle Guion,Philippines,1971-12-29,43.4,70,73,75,75,,75,B,Raw,Open,1
F,44,2011-12-17,Rina Nuryani,India,1987-08-18,42.25,-65,-65,-70,,,,B,Raw,Open,DQ
F,48,2011-12-17,Thi Linh Phuong Dang,Vietnam,1983-04-12,45.5,63,68,-72,68,,68,B,Raw,Open,1
F,48,2011-12-17,Hat Motnok,Thailand,1977-02-03,47.4,63,-69,-69,63,,63,B,Raw,Open,2
F,52,2011-12-18,Tuyet Loan Chau Hoang,Vietnam,1975-02-08,49.35,93,96,98,98,,98,B,Raw,Open,1
F,52,2011-12-18,Wandi Kongmuang,Thailand,1967-05-05,49.35,65,67,69,69,,69,B,Raw,Open,2
F,52,2011-12-18,Thi Nga Dinh,Vietnam,1971-11-04,49.5,53,58,63,63,,63,B,Raw,Open,3
F,52,2011-12-18,Agustina Erna Rita,India,1976-08-08,48.9,60,-66,-66,60,,60,B,Raw,Open,4
F,56,2011-12-18,Somkhoun Anon,Thailand,1977-10-14,55.55,90,94,101,101,,101,B,Raw,Open,1
F,56,2011-12-18,Yuliana Lili,India,1980-10-02,54.3,75,82,-100,82,,82,B,Raw,Open,2
F,60,2011-12-18,Lee Chan Siow,Malaysia,1971-02-27,58.05,85,88,90,90,,90,B,Raw,Open,1
F,60,2011-12-18,Rahayu Iwan Musa,India,1991-02-05,58.65,80,-88,-92,80,,80,B,Raw,Open,2
F,60,2011-12-18,Habeebah Sanathong,Thailand,1982-01-10,58.8,65,70,72,72,,72,B,Raw,Open,3
F,67.5,2011-12-19,Arawan Bootpo,Thailand,1984-10-10,66.55,106,-113,113,113,,113,B,Raw,Open,1
F,67.5,2011-12-19,Nurtani Purba,India,1975-03-28,64.5,105,112,-117,112,,112,B,Raw,Open,2
F,67.5,2011-12-19,Fatimah Wagimin,Malaysia,1978-11-06,66,85,-90,-95,85,,85,B,Raw,Open,3
F,75,2011-12-19,Siti Mahmudah Kasimin,India,1983-08-20,71.75,85,90,-95,90,,90,B,Raw,Open,1
F,75,2011-12-19,Phanumas Yimmak,Thailand,1973-12-13,67.95,70,75,-91,75,,75,B,Raw,Open,2
F,75,2011-12-19,Sumiati Mat Nuh,India,1979-08-06,74.65,65,70,75,75,,75,B,Raw,Open,3
F,82.5+,2011-12-19,Adeline Ancheta,Philippines,1973-12-13,101.9,-120,120,-125,120,,120,B,Raw,Open,1
F,82.5,2011-12-19,Sharifah Raudzah Syed Akil,Malaysia,1973-08-24,81.6,95,-100,-100,95,,95,B,Raw,Open,1
F,82.5,2011-12-19,Rujapa Chaipidech,Thailand,1974-01-30,75.2,75,80,-85,80,,80,B,Raw,Open,2
